{
  "segments": [
    {
      "segment_id": "799202af-453f-42b8-adcc-5efec3b2e449",
      "max_doc": 281,
      "deletes": null
    },
    {
      "segment_id": "0e36f031-1232-48f7-aa80-5452b346f150",
      "max_doc": 1,
      "deletes": null
    },
    {
      "segment_id": "12cac516-f615-40d1-a89a-c996aa8dc74a",
      "max_doc": 1,
      "deletes": null
    },
    {
      "segment_id": "a385562d-fe4d-4adc-949e-b28bf60ab74d",
      "max_doc": 1,
      "deletes": null
    },
    {
      "segment_id": "f311cced-456a-439e-8bfb-fdcc74352f5b",
      "max_doc": 1,
      "deletes": null
    }
  ],
  "schema": [
    {
      "name": "name",
      "type": "text",
      "options": {
        "indexing": {
          "record": "position",
          "tokenizer": "default"
        },
        "stored": true
      }
    },
    {
      "name": "about",
      "type": "text",
      "options": {
        "indexing": {
          "record": "position",
          "tokenizer": "default"
        },
        "stored": true
      }
    },
    {
      "name": "symptoms",
      "type": "text",
      "options": {
        "indexing": {
          "record": "position",
          "tokenizer": "default"
        },
        "stored": true
      }
    },
    {
      "name": "people_at_risk",
      "type": "text",
      "options": {
        "indexing": {
          "record": "position",
          "tokenizer": "default"
        },
        "stored": true
      }
    }
  ],
  "opstamp": 1178
}
